Chapter 3 Example 1: Regression | Intro to Bayesian Addictive Regression Trees (BART)
…
#Splitting the data into train and test sets
set.seed(1234)
df_split <- 
  df_tidy %>% 
  #Converting the levels to variables for modeling
  pivot_wider(names_from = age, values_from = childhood) %>% 
  clean_names() %>% 
  na.omit() %>% 
  initial_split() 

df_train <- training(df_split)
df_test <- testing(df_split)

df_train
## # A tibble: 216 × 7
##    country  time household country_name age_3 age_4 age_5
##    <chr>   <dbl>     <dbl> <chr>        <dbl> <dbl> <dbl>
##  1 SVN      2015      324. Slovenia      82.8  89.3  91.8
##  2 ITA      2014      575. Italy         92.0  96.0  97.0
##  3 JPN      2012      571. Japan         78    93.8  94.6
##  4 LUX      2011      391. Luxembourg    72.0  94.6  96.7
##  5 ITA      2011      500. Italy         94.4  98.7  99.6
##  6 ITA      2016      578. Italy         92.4  95.9  96.4
##  7 ESP      2017      392. Spain         96.4  97.7  97.1
##  8 GRC      2019      362. Greece        34.9  76.0  95.2
##  9 DEU      2015      469. Germany       93.3  96.7  98.1
## 10 LTU      2012      203. Lithuania     71.4  75    77.0
## # ℹ 206 more rows
…
